{
    "version": "https://jsonfeed.org/version/1",
    "title": "KeplerNasa",
    "description": "",
    "home_page_url": "https://KeplerNasa.gitlab.io/KeplerNasaIA",
    "feed_url": "https://KeplerNasa.gitlab.io/KeplerNasaIA/feed.json",
    "user_comment": "",
    "author": {
        "name": "Bruno Henrique"
    },
    "items": [
    ]
}
